<?xml version="1.0" encoding="UTF-8" standalone="no"?>
<!-- Created with Inkscape (http://www.inkscape.org/) -->

<svg
   xmlns:dc="http://purl.org/dc/elements/1.1/"
   xmlns:cc="http://creativecommons.org/ns#"
   xmlns:rdf="http://www.w3.org/1999/02/22-rdf-syntax-ns#"
   xmlns:svg="http://www.w3.org/2000/svg"
   xmlns="http://www.w3.org/2000/svg"
   xmlns:sodipodi="http://sodipodi.sourceforge.net/DTD/sodipodi-0.dtd"
   xmlns:inkscape="http://www.inkscape.org/namespaces/inkscape"
   version="1.1"
   id="svg170"
   width="656.89966"
   height="167.18925"
   viewBox="0 0 656.89966 167.18925"
   sodipodi:docname="Edladleni logo.svg"
   inkscape:version="0.92.4 (unknown)">
  <metadata
     id="metadata176">
    <rdf:RDF>
      <cc:Work
         rdf:about="">
        <dc:format>image/svg+xml</dc:format>
        <dc:type
           rdf:resource="http://purl.org/dc/dcmitype/StillImage" />
        <dc:title></dc:title>
      </cc:Work>
    </rdf:RDF>
  </metadata>
  <defs
     id="defs174" />
  <sodipodi:namedview
     pagecolor="#ffffff"
     bordercolor="#666666"
     borderopacity="1"
     objecttolerance="10"
     gridtolerance="10"
     guidetolerance="10"
     inkscape:pageopacity="0"
     inkscape:pageshadow="2"
     inkscape:window-width="1853"
     inkscape:window-height="1025"
     id="namedview172"
     showgrid="false"
     inkscape:zoom="0.62058824"
     inkscape:cx="70.203304"
     inkscape:cy="92.827702"
     inkscape:window-x="67"
     inkscape:window-y="27"
     inkscape:window-maximized="1"
     inkscape:current-layer="svg170"
     fit-margin-top="0"
     fit-margin-left="0"
     fit-margin-right="0"
     fit-margin-bottom="0" />
  <path
     style="fill:#000000"
     d="M 20.400264,165.75734 C 6.6797138,161.89701 -0.11188618,152.74807 0.00139382,138.27811 c 0.0878,-11.21025 5.43127998,-19.94436 15.10959018,-24.69704 4.96915,-2.44018 6.87277,-2.80296 14.70791,-2.80296 7.62955,0 9.85379,0.40035 14.60697,2.62919 3.39279,1.59094 6.74941,4.12702 8.5,6.42216 2.47723,3.24782 2.89303,4.69086 2.89303,10.04024 0,7.34819 -2.09782,10.37447 -9.5,13.70451 -5.0593,2.27605 -19.29463,2.7615 -24.25,0.82698 -3.84744,-1.50201 -3.70285,0.89736 0.25476,4.22747 3.4404,2.8949 10.00553,4.19239 16.55809,3.27242 2.44044,-0.34263 6.35081,-0.89394 8.68971,-1.22513 5.54689,-0.78544 8.0287,1.59479 7.56366,7.25407 -0.28582,3.47816 -0.77022,4.07332 -5.03878,6.19096 -6.20293,3.07729 -21.56582,3.92384 -29.69607,1.63636 z m 15.96146,-30.50215 c 1.05123,-0.5626 2.41021,-1.95506 3.01993,-3.09435 0.91204,-1.70416 0.7079,-2.49796 -1.15139,-4.47708 -1.82723,-1.94499 -3.25956,-2.40565 -7.47992,-2.40565 -4.38009,0 -5.71962,0.46678 -8.32569,2.90121 -3.83286,3.58043 -3.93788,5.6282 -0.35576,6.93651 3.65894,1.33636 11.90597,1.41677 14.29283,0.13936 z m 189.896616,30.65812 c -6.53088,-1.76114 -10.93906,-4.61257 -14.64757,-9.47474 -4.2916,-5.62667 -5.59851,-10.96612 -5.087,-20.78314 0.36722,-7.04758 0.84928,-8.78661 3.64216,-13.13893 7.98056,-12.43663 24.76,-16.12636 36.41636,-8.00781 l 2.76339,1.92468 3.18775,-2.68232 c 2.66539,-2.24278 3.84955,-2.59356 7.22639,-2.14063 7.05824,0.94671 7.55908,2.38967 7.55908,21.77847 v 16.88922 h 3.04545 c 3.57917,0 7.95455,3.86149 7.95455,7.02029 0,2.39186 -1.75508,6.11625 -3.3997,7.2144 -0.60517,0.40408 -5.52185,0.74158 -10.92597,0.75 -9.10141,0.0142 -9.98212,-0.16034 -11.94825,-2.36768 l -2.12259,-2.38299 -3.55174,2.33388 c -3.3164,2.17922 -10.63054,4.43834 -14.05175,4.34016 -0.825,-0.0237 -3.55225,-0.59647 -6.06056,-1.27286 z m 17.09329,-15.15213 c 3.87125,-2.0019 5.96813,-6.28578 5.96353,-12.18341 -0.006,-7.99503 -5.70708,-14.29966 -12.93021,-14.29966 -3.48733,0 -8.70603,3.12052 -10.61051,6.34455 -3.74965,6.34765 -1.4762,16.95211 4.30703,20.09006 3.56642,1.93512 9.57931,1.95708 13.27016,0.0485 z m 58.88772,15.48156 c -13.57152,-2.22284 -21.92045,-12.86652 -21.92045,-27.94542 0,-19.55054 17.33636,-32.55348 35.25991,-26.44632 2.53891,0.8651 5.14917,2.2151 5.80059,3 0.65141,0.78491 1.57929,1.42711 2.06194,1.42711 0.48266,0 0.87756,-8.79545 0.87756,-19.545448 0,-19.41864 0.0159,-19.56139 2.45455,-22 2.27841,-2.27842 3.17128,-2.45455 12.44329,-2.45455 9.18848,0 10.11347,0.17806 11.54546,2.22251 1.90782,2.72379 2.01881,7.76325 0.22501,10.21642 -0.73242,1.00165 -3.09492,2.10765 -5.25,2.45778 l -3.91831,0.63658 -0.26406,31.099798 -0.26406,31.0998 4.09187,0.54883 c 4.7659,0.63925 6.85978,2.90412 6.90445,7.46828 0.0577,5.89515 -2.52005,7.25 -13.79389,7.25 -9.1207,0 -9.98999,-0.1749 -12.1157,-2.43762 l -2.29003,-2.43761 -3.63429,2.37675 c -5.23217,3.42172 -11.35672,4.58622 -18.21384,3.46311 z m 14.01387,-14.55503 c 7.05144,-2.82142 10.01286,-13.03423 5.97001,-20.58836 -2.75145,-5.14114 -12.01849,-7.36493 -17.93706,-4.30431 -8.65028,4.47323 -7.78674,21.04917 1.30242,25.00048 4.20704,1.82892 5.8662,1.81214 10.66463,-0.10781 z m 103.56568,14.25191 c -6.94967,-1.81093 -10.57547,-3.89577 -14.68378,-8.44318 -5.22987,-5.78883 -7.12313,-11.61018 -6.63687,-20.40691 0.4638,-8.3905 2.56778,-13.49188 7.66799,-18.5921 5.84232,-5.84231 11.2248,-7.71771 22.15266,-7.71857 8.31593,-6.6e-4 10.19057,0.3384 15.04056,2.72033 7.57371,3.7196 10.28782,7.6249 10.79305,15.53 0.39234,6.13873 0.32962,6.32099 -3.48959,10.1402 -2.20163,2.20163 -5.61492,4.36823 -7.86657,4.99334 -4.72908,1.3129 -16.46365,1.4192 -21.72745,0.19683 -6.65465,-1.54535 -4.03064,3.23204 3.50448,6.38041 4.44589,1.85761 8.4338,1.92819 17.83723,0.31568 l 7.12884,-1.22246 2.46281,2.86319 c 4.19172,4.87317 1.35323,10.34938 -6.51338,12.56605 -6.15518,1.73441 -20.19172,2.10471 -25.66998,0.67719 z m 14.54282,-30.68443 c 2.91228,-1.5586 4.22403,-4.60994 2.9806,-6.93333 -1.27297,-2.37855 -7.19244,-4.15995 -11.17592,-3.36325 -3.32241,0.66448 -8.8475,5.39557 -8.8475,7.57605 0,2.88957 12.88405,4.94624 17.04282,2.72053 z M 62.746614,163.19824 c -2.56665,-2.83612 -2.51486,-9.29172 0.095,-11.84264 1.19165,-1.16473 3.76524,-2.07333 6.47727,-2.28677 l 4.5,-0.35416 0.26558,-28.21828 0.26557,-28.218278 h -4.44414 c -4.65894,0 -7.0825,-1.54284 -8.5702,-5.45579 -1.14186,-3.00332 -0.16956,-7.09607 2.19377,-9.23437 1.82931,-1.65513 4.2779,-1.80377 28.644865,-1.73877 28.827891,0.0769 33.948121,0.762 44.085231,5.89886 11.8756,6.01782 20.47905,19.353218 21.68359,33.609658 1.64731,19.497 -6.09282,36.09455 -20.38479,43.71209 -10.58256,5.64044 -14.72566,6.20832 -45.294581,6.20832 -26.718685,0 -27.697325,-0.069 -29.517175,-2.07987 z m 60.083506,-16.85308 c 9.68406,-4.20885 14.90442,-13.16387 14.90442,-25.56705 0,-9.34381 -2.08304,-14.91111 -7.72547,-20.64775 -5.71543,-5.810868 -11.10132,-7.352248 -25.69017,-7.352248 H 91.818899 l -0.26657,26.877568 c -0.1759,17.7351 0.0916,27.30914 0.7864,28.14633 1.61973,1.95165 25.246211,0.8228 30.491391,-1.45685 z m 43.04548,16.71044 c -1.62302,-2.31719 -2.0587,-7.47981 -0.79139,-9.37779 1.17331,-1.75719 4.88532,-3.3997 7.6832,-3.3997 h 2.57998 l -0.26424,-31.23663 c -0.25689,-30.366678 -0.31995,-31.245038 -2.26425,-31.538928 -5.1071,-0.77196 -6.23578,-1.34912 -7.32856,-3.74752 -1.67796,-3.68271 -1.45777,-5.84319 0.90114,-8.84206 1.97931,-2.51628 2.5003,-2.63486 11.57692,-2.63486 9.24746,0 9.58622,0.0819 12.53362,3.02928 l 3.02928,3.02928 -0.3562,35.703328 c -0.34991,35.07244 -0.32086,35.70874 1.6438,36.00965 5.33909,0.81775 6.57975,1.48201 8.03916,4.30418 1.26662,2.44937 1.35873,3.70364 0.46982,6.39708 -0.60815,1.84269 -1.79575,3.61514 -2.63914,3.93877 -0.84338,0.32364 -8.67109,0.58843 -17.39492,0.58843 -15.25722,0 -15.92082,-0.0847 -17.41822,-2.22251 z m 192.4433,0.22251 c -2.97766,-2.97766 -2.66668,-8.33043 0.63486,-10.92742 1.44917,-1.13992 3.92417,-2.07258 5.5,-2.07258 h 2.86514 v -31.5 -31.499998 h -3.42742 c -2.51163,0 -3.9812,-0.70402 -5.5,-2.63486 -2.74937,-3.49526 -2.61773,-6.9109 0.38197,-9.91059 2.23877,-2.23878 3.23784,-2.45455 11.36514,-2.45455 7.48702,0 9.32959,0.32958 11.5332,2.06294 l 2.6226,2.06294 0.26225,36.670328 0.26226,36.67034 3.91831,0.63666 c 4.70398,0.76433 6.58169,3.02754 6.58169,7.93293 0,6.43345 -1.4722,6.96386 -19.32874,6.96386 -14.33793,0 -15.84142,-0.17016 -17.67126,-2 z m 102.5567,-0.22251 c -3.81168,-5.44194 -0.21911,-12.77749 6.25775,-12.77749 h 3.18555 v -12 -12 h -3.5 c -2.16667,0 -4.2619,-0.7619 -5.5,-2 -1.2381,-1.2381 -2,-3.33333 -2,-5.5 0,-6.04554 2.51194,-7.5 12.95295,-7.5 9.98422,0 13.81277,1.21836 14.67943,4.67144 0.71454,2.84694 1.50697,2.93633 3.12088,0.35204 4.46021,-7.14192 22.12666,-7.96375 29.41935,-1.36856 5.2092,4.71097 6.56241,10.65403 7.76335,34.09508 0.0363,0.70799 1.36486,1.25 3.06404,1.25 6.00697,0 9.78584,7.12804 6.27531,11.83705 -1.88866,2.53345 -2.47119,2.67673 -11.97834,2.94626 -14.60145,0.41395 -14.654,0.35403 -15.29697,-17.4434 -0.64392,-17.82359 -2.00615,-20.33991 -11.01118,-20.33991 -7.65822,0 -11.75255,6.99965 -10.81448,18.48837 0.30718,3.76201 0.54008,4.02292 4.10364,4.59713 2.07788,0.33482 4.42607,1.46505 5.21819,2.51163 1.9073,2.51999 1.88186,7.41814 -0.0529,10.18036 -1.50094,2.14293 -2.14345,2.22251 -17.94327,2.22251 -15.79982,0 -16.44233,-0.0796 -17.9433,-2.22251 z m 82.48226,0.034 c -4.37934,-4.70071 -0.63425,-12.81149 5.91559,-12.81149 h 3.04545 v -12 -12 h -3.42742 c -2.51163,0 -3.9812,-0.70402 -5.5,-2.63486 -2.74937,-3.49526 -2.61773,-6.9109 0.38197,-9.91059 2.22096,-2.22097 3.26328,-2.45455 10.95294,-2.45455 9.50216,0 12.85089,1.07691 14.48224,4.65732 0.66546,1.46054 1.11027,8.82798 1.11027,18.38973 v 15.95295 h 2.41821 c 3.79584,0 5.53713,1.01296 7.1703,4.17116 1.62647,3.14525 1.16871,6.19712 -1.36178,9.07884 -1.3418,1.52804 -3.54145,1.75 -17.34276,1.75 -14.97224,0 -15.91362,-0.11545 -17.84501,-2.18856 z m 66.47496,-37.44038 c -0.89592,-0.89592 -1.37806,-2.28272 -1.07143,-3.08179 0.30663,-0.79906 0.55751,-1.64104 0.55751,-1.87106 0,-0.64027 5.63119,-0.49697 7.41821,0.18878 0.86999,0.33384 1.58179,1.6357 1.58179,2.89301 0,3.62618 -5.51499,4.84216 -8.48608,1.87106 z m -9.1972,-4.98807 c -0.34127,-0.88936 -0.20996,-2.78437 0.2918,-4.21114 0.99356,-2.82517 5.27038,-4.29998 9.90202,-3.41459 3.3295,0.63648 2.69362,2.46001 -1.32108,3.78854 -1.73818,0.57519 -4.08441,2.03769 -5.21384,3.25 -2.45332,2.63333 -2.84933,2.69688 -3.6589,0.58719 z m -3.87906,-7.48386 c -0.90655,-1.46683 2.39853,-4.50202 5.75105,-5.2814 4.30354,-1.00048 4.23176,1.09175 -0.13196,3.84645 -4.58691,2.89559 -4.69872,2.92414 -5.61909,1.43495 z m -8.43766,-3.20805 c 0,-4.59685 1.75993,-6.35617 7.02241,-7.02 6.63317,-0.83674 8.23172,0.646 3.37886,3.13406 -2.1457,1.10009 -4.99221,3.16897 -6.32558,4.59749 -3.20058,3.42898 -4.07569,3.2762 -4.07569,-0.71155 z m -8.23704,-3.44113 c -0.81652,-3.72417 1.21932,-6.928118 5.15068,-8.105978 2.10012,-0.62921 4.77869,-1.14402 5.95238,-1.14402 3.11895,0 2.63187,2.846378 -0.61602,3.599918 -4.23109,0.98164 -7.25,3.23984 -7.25,5.42313 0,2.44283 -2.70956,2.63279 -3.23704,0.22695 z m -23.26296,-2.40473 c -5.22131,-2.85584 -6.26158,-10.174598 -2.04545,-14.390718 5.56295,-5.56296 15.54545,-1.29674 15.54545,6.64365 0,6.510498 -7.69128,10.924188 -13.5,7.747068 z m 16.02699,-6.760228 c -0.33428,-1.05322 -0.31582,-3.07822 0.041,-4.5 0.58351,-2.3249 1.12547,-2.58504 5.38541,-2.58504 3.43444,0 5.22426,0.53885 6.51043,1.96005 1.7297,1.9113 1.63095,2.02324 -3.96944,4.5 -6.8851,3.04492 -7.19173,3.06898 -7.96742,0.62499 z M 532.3189,83.331922 c -4.125,-0.35439 -8.38198,-1.14474 -9.45995,-1.75633 -1.6957,-0.96205 -1.29125,-1.19757 3,-1.74694 10.31465,-1.32048 10.67986,-1.54856 13.33719,-8.32924 1.34096,-3.42171 2.74597,-6.2213 3.12225,-6.2213 0.52294,0 6.36925,12.02436 8.83384,18.16895 0.36882,0.91953 -7.33875,0.87241 -18.83333,-0.11514 z m 47.82318,-1.763 c -4.42543,-0.67705 -5.35906,-2.72949 -2.84665,-6.25785 2.05211,-2.88192 8.024,-8.03296 9.31307,-8.03296 0.33045,0 0.73797,2.1375 0.90561,4.75 0.27277,4.251 0.64394,4.90758 3.53315,6.25 1.77559,0.825 3.23809,1.78125 3.25,2.125 0.0515,1.48673 -7.82008,2.13502 -14.15518,1.16581 z m 18.67682,-3.17154 c -2.2,-1.01025 -4.83268,-2.77322 -5.8504,-3.91772 -1.76597,-1.98596 -1.77371,-2.31182 -0.16963,-7.14123 2.00204,-6.02759 5.01932,-7.23866 3.95948,-1.58926 -0.55493,2.95804 -0.22908,3.88328 2.20469,6.26015 1.57072,1.53399 3.94517,3.4907 5.27655,4.34825 1.4381,0.92628 2.12449,2.03842 1.69098,2.73985 -0.98931,1.60075 -2.40466,1.46143 -7.11167,-0.70004 z m -87,-0.79136 c -5.14884,-1.13298 -7.53977,-2.57507 -6.4488,-3.8896 0.74372,-0.89612 3.49322,-1.25407 8.76619,-1.14122 12.15392,0.26011 16.15845,-3.21716 16.17703,-14.04709 0.007,-3.91091 2.22411,-4.37231 4.47837,-0.93187 1.37923,2.10497 1.32893,2.88067 -0.54705,8.43574 -1.13627,3.36468 -2.60687,6.56653 -3.268,7.11522 -1.12618,0.93465 -15.50276,5.26803 -16.63764,5.01491 -0.28606,-0.0638 -1.4201,-0.31404 -2.5201,-0.55609 z m 95.40481,-4.61308 c -4.2846,-2.88738 -4.54046,-4.36646 -1.84091,-10.64173 3.27342,-7.60928 5.9361,-6.52058 5.9361,2.42713 0,3.87895 0.37006,4.56536 3.50623,6.50362 1.92843,1.19183 3.25187,2.57854 2.94098,3.08156 -1.05829,1.71236 -7.14111,0.92155 -10.5424,-1.37058 z m -48.34979,-3.96483 c -1.28388,-2.8875 -2.62145,-6.503 -2.97238,-8.03446 l -0.63804,-2.78445 3.8446,1.96137 c 2.11453,1.07875 4.43209,2.66925 5.15014,3.53445 1.63215,1.96662 3.65446,1.98051 9.09092,0.0624 2.35495,-0.83087 4.48197,-1.31043 4.72672,-1.06568 1.05663,1.05664 -5.27933,7.65081 -9.153,9.52602 -6.35586,3.07682 -7.40704,2.74212 -10.04896,-3.19966 z m 60.94498,-1.04154 c -4.8658,-2.74753 -5.44331,-5.59512 -2.25739,-11.13072 3.43451,-5.96753 4.91286,-5.81822 4.62606,0.46722 -0.21636,4.74169 0.0436,5.47412 2.69594,7.59638 1.61447,1.2918 3.27289,2.35096 3.68539,2.35369 0.4125,0.003 0.75,0.67997 0.75,1.50497 0,2.24602 -4.83383,1.84326 -9.5,-0.79154 z m -122.93823,-0.0523 -2.93824,-1.25364 5.51565,-1.23435 c 7.96011,-1.78139 11.99385,-5.50095 13.86586,-12.78587 1.80079,-7.00777 3.68914,-7.84195 7.99798,-3.53312 2.47067,2.47067 2.99698,3.81426 2.99698,7.65083 0,3.76238 -0.5357,5.18954 -2.79659,7.45044 -4.48756,4.48755 -18.03441,6.52479 -24.64164,3.70571 z m 138.43823,-3.37769 c -0.825,-0.31 -2.7375,-1.43012 -4.25,-2.48915 -3.00469,-2.10384 -3.66658,-6.20815 -1.61836,-10.03528 1.09586,-2.04764 1.17488,-2.05533 2.5,-0.24313 0.7526,1.02924 1.36836,2.88744 1.36836,4.12933 0,1.40419 1.31974,3.26459 3.49026,4.92013 4.39602,3.35301 3.49837,5.59261 -1.49026,3.7181 z m -150,-5.18943 -2.5,-0.71161 2.18426,-1.18871 c 1.20134,-0.6538 2.77634,-1.19123 3.5,-1.1943 0.72366,-0.003 3.002,-0.47387 5.06299,-1.04624 3.32847,-0.92437 3.87257,-1.53839 4.86871,-5.49442 1.22566,-4.86756 2.84365,-5.57121 6.66153,-2.89706 2.18773,1.53235 2.82865,4.70015 1.59918,7.90411 -1.64581,4.28891 -13.52955,6.86184 -21.37667,4.62823 z m 76.96903,-3.34129 c -2.99338,-1.78874 -5.59423,-4.0401 -5.77967,-5.00302 -0.5816,-3.01999 2.64096,-3.13432 6.8149,-0.24178 5.47547,3.7945 12.17731,4.47826 16.02333,1.63478 1.59028,-1.17575 3.58465,-2.13773 4.43192,-2.13773 2.93624,0 1.51931,2.91849 -2.88969,5.95196 -6.10989,4.20372 -11.32003,4.14652 -18.60079,-0.20421 z m 75.18725,0.94055 c -1.38664,-1.67079 1.5921,-8.04266 3.96617,-8.48412 1.96971,-0.36627 6.07035,6.12981 5.23825,8.29822 -0.72552,1.89069 -7.67312,2.03101 -9.20442,0.1859 z m -163.2955,-4.61401 c -2.58795,-2.11101 -2.26207,-2.39906 3.92587,-3.47009 1.80766,-0.31287 4.99886,-1.94483 7.09157,-3.62657 4.73394,-3.8043 9.48086,-4.44817 9.92478,-1.34619 0.41451,2.89643 -3.39576,6.78467 -8.57324,8.74869 -5.64258,2.14046 -9.48651,2.04541 -12.36898,-0.30584 z m 176.65199,0.94638 c -0.96761,-1.56563 1.38276,-5.02067 3.41542,-5.02067 2.30972,0 3.49405,2.78631 1.96662,4.62675 -1.32004,1.59055 -4.49869,1.8232 -5.38204,0.39392 z m -82.91875,-5.28712 c -4.17356,-2.38656 -8.40358,-7.25732 -7.27914,-8.38176 0.37452,-0.37452 3.05084,0.51812 5.94738,1.98363 6.72703,3.40357 9.19779,3.34734 14.73774,-0.33542 5.24699,-3.48801 7,-3.75119 7,-1.05089 0,2.22296 -4.87133,6.26353 -10.27171,8.51995 -4.74472,1.98247 -5.47364,1.92957 -10.13427,-0.73551 z m -100.2714,-2.42091 c -1.19756,-0.23799 -2.71516,-1.08069 -3.37244,-1.87267 -0.9928,-1.19625 -0.7089,-1.44144 1.67738,-1.44866 1.57984,-0.005 5.23494,-0.29246 8.12244,-0.63929 3.54411,-0.4257 5.25,-0.27184 5.25,0.47351 0,2.21099 -7.23183,4.37056 -11.67738,3.48711 z m 102.89417,-8.87334 c -2.43867,-1.70812 -5.21679,-6.44215 -5.21679,-8.88964 0,-2.94629 6.32625,-1.93479 9.38752,1.50096 2.93853,3.298 4.75708,3.29438 9.61248,-0.0191 4.27949,-2.92046 6,-3.20725 6,-1.00015 0,2.6078 -3.22091,5.71154 -8.33853,8.03518 -5.09514,2.31345 -8.51491,2.42482 -11.44468,0.37274 z m 5.00828,-11.42969 c -2.9608,-1.81769 -5.95535,-6.61266 -4.83155,-7.73646 0.24721,-0.24721 2.43683,0.7152 4.86583,2.13869 4.97333,2.91456 8.89512,3.31189 10.74065,1.08816 1.67098,-2.01341 4.22867,-1.91706 3.82332,0.14402 -0.42673,2.16981 -4.57656,5.05618 -8.32332,5.78919 -2.06416,0.40383 -4.0216,-0.0403 -6.27493,-1.4236 z m 1.75933,-9.87831 c -5.89954,-3.16396 -4.53201,-4.47132 4.76575,-4.55609 4.53758,-0.0414 8.25008,0.22229 8.25,0.5859 -2.8e-4,1.25438 -6.15794,5.83889 -7.84248,5.83889 -0.92888,0 -3.25685,-0.84092 -5.17327,-1.8687 z m 4.51935,-10.1271604 c -1.62588,-1.79657 -1.68242,-2.25404 -0.43301,-3.50345 0.79038,-0.79038005 2.5603,-1.56388005 3.93316,-1.71887005 2.15574,-0.24339 2.53883,0.16134 2.80946,2.96818005 0.17235,1.7875 -0.12835,3.25 -0.66821,3.25 -0.53987,0 -1.60927,0.24087 -2.37646,0.53527 -0.76718,0.29439 -2.23641,-0.39461 -3.26494,-1.53113 z"
     id="path202"
     inkscape:connector-curvature="0"
     sodipodi:nodetypes="scsscssccccscssccssccccccsscssscsscccccccccsssccssccsscssccccccsscccssscssccscsssssssscscccccscccccccsssssssscccssscsccccscssccsccsccccscscscccsscssccccssscscccssssccscscsssccccsccscccsscscscssssccccscscccccccscsssscssssscssccscccscscccccssccscscccscsccccccscscssccscssccccccccccscccssccscccsscsccssccsssccccscsccscscssscsccsccccscsccsscsssscccssccssssccccscscsccccsccsccscc" />
</svg>
